EESchema Schematic File Version 4
EELAYER 30 0
EELAYER END
$Descr A4 11693 8268
encoding utf-8
Sheet 1 1
Title ""
Date ""
Rev ""
Comp ""
Comment1 ""
Comment2 ""
Comment3 ""
Comment4 ""
$EndDescr
$Comp
L hw_nodo_sensor-rescue:LoPy4-pycom-nodosesnor-rescue U11
U 1 1 6175B9A6
P 5050 2400
F 0 "U11" H 5875 2487 60  0000 C CNN
F 1 "LoPy4-pycom" H 5875 2381 60  0000 C CNN
F 2 "Pycom:xxPy_tht_headers" H 5050 2400 60  0001 C CNN
F 3 "" H 5050 2400 60  0001 C CNN
	1    5050 2400
	1    0    0    -1  
$EndComp
$Comp
L Device:R R2
U 1 1 6175CC11
P 7000 4300
F 0 "R2" H 7070 4346 50  0000 L CNN
F 1 "R" H 7070 4255 50  0000 L CNN
F 2 "Resistor_THT:R_Axial_DIN0207_L6.3mm_D2.5mm_P7.62mm_Horizontal" V 6930 4300 50  0001 C CNN
F 3 "~" H 7000 4300 50  0001 C CNN
	1    7000 4300
	1    0    0    -1  
$EndComp
$Comp
L Device:R R1
U 1 1 6175D13C
P 7000 3900
F 0 "R1" H 7070 3946 50  0000 L CNN
F 1 "R" H 7070 3855 50  0000 L CNN
F 2 "Resistor_THT:R_Axial_DIN0207_L6.3mm_D2.5mm_P7.62mm_Horizontal" V 6930 3900 50  0001 C CNN
F 3 "~" H 7000 3900 50  0001 C CNN
	1    7000 3900
	1    0    0    -1  
$EndComp
$Comp
L Switch:SW_Push SW2
U 1 1 617ABFBD
P 4600 4550
F 0 "SW2" H 4550 4300 50  0000 C CNN
F 1 "SW_Push" H 4600 4400 50  0000 C CNN
F 2 "Button_Switch_THT:SW_PUSH_6mm" H 4600 4750 50  0001 C CNN
F 3 "~" H 4600 4750 50  0001 C CNN
	1    4600 4550
	1    0    0    -1  
$EndComp
$Comp
L Switch:SW_Push SW1
U 1 1 617AC4FC
P 4600 3050
F 0 "SW1" H 4300 3200 50  0000 C CNN
F 1 "SW_Push" H 4300 3100 50  0000 C CNN
F 2 "Button_Switch_THT:SW_PUSH_6mm" H 4600 3250 50  0001 C CNN
F 3 "~" H 4600 3250 50  0001 C CNN
	1    4600 3050
	1    0    0    -1  
$EndComp
$Comp
L Connector:Conn_01x02_Female J2
U 1 1 617ACB56
P 6500 1400
F 0 "J2" V 6100 1050 50  0000 R CNN
F 1 "Conn_01x02_Female" V 6000 1550 50  0000 R CNN
F 2 "Connector_PinHeader_2.54mm:PinHeader_1x02_P2.54mm_Vertical" H 6500 1400 50  0001 C CNN
F 3 "~" H 6500 1400 50  0001 C CNN
	1    6500 1400
	0    -1   -1   0   
$EndComp
$Comp
L Connector:Conn_01x04_Female J4
U 1 1 617AEA80
P 8800 3950
F 0 "J4" H 8600 3700 50  0000 C CNN
F 1 "Conn_01x04_Female" H 8850 3600 50  0000 C CNN
F 2 "Connector_PinHeader_2.54mm:PinHeader_1x04_P2.54mm_Vertical" H 8800 3950 50  0001 C CNN
F 3 "~" H 8800 3950 50  0001 C CNN
	1    8800 3950
	1    0    0    -1  
$EndComp
$Comp
L Connector:Conn_01x04_Female J5
U 1 1 617AF650
P 8800 4850
F 0 "J5" H 8650 4550 50  0000 L CNN
F 1 "Conn_01x04_Female" H 8500 4500 50  0000 L CNN
F 2 "Connector_PinHeader_2.54mm:PinHeader_1x04_P2.54mm_Vertical" H 8800 4850 50  0001 C CNN
F 3 "~" H 8800 4850 50  0001 C CNN
	1    8800 4850
	1    0    0    -1  
$EndComp
$Comp
L Connector:Conn_01x03_Female J3
U 1 1 617AFE98
P 8700 3150
F 0 "J3" H 8550 2950 50  0000 L CNN
F 1 "Conn_01x03_Female" H 8500 2900 50  0000 L CNN
F 2 "Connector_PinHeader_2.54mm:PinHeader_1x03_P2.54mm_Vertical" H 8700 3150 50  0001 C CNN
F 3 "~" H 8700 3150 50  0001 C CNN
	1    8700 3150
	1    0    0    -1  
$EndComp
$Comp
L power:GND #PWR06
U 1 1 617CE42B
P 6600 1600
F 0 "#PWR06" H 6600 1350 50  0001 C CNN
F 1 "GND" H 6650 1450 50  0000 C CNN
F 2 "" H 6600 1600 50  0001 C CNN
F 3 "" H 6600 1600 50  0001 C CNN
	1    6600 1600
	1    0    0    -1  
$EndComp
$Comp
L power:VCC #PWR05
U 1 1 617CEB51
P 6500 1600
F 0 "#PWR05" H 6500 1450 50  0001 C CNN
F 1 "VCC" H 6550 1750 50  0000 C CNN
F 2 "" H 6500 1600 50  0001 C CNN
F 3 "" H 6500 1600 50  0001 C CNN
	1    6500 1600
	-1   0    0    1   
$EndComp
$Comp
L power:PWR_FLAG #FLG02
U 1 1 617CFD1B
P 5900 1600
F 0 "#FLG02" H 5900 1675 50  0001 C CNN
F 1 "PWR_FLAG" H 6000 1750 50  0000 C CNN
F 2 "" H 5900 1600 50  0001 C CNN
F 3 "~" H 5900 1600 50  0001 C CNN
	1    5900 1600
	1    0    0    -1  
$EndComp
$Comp
L power:PWR_FLAG #FLG01
U 1 1 617D26E0
P 5750 1750
F 0 "#FLG01" H 5750 1825 50  0001 C CNN
F 1 "PWR_FLAG" H 5850 1900 50  0000 C CNN
F 2 "" H 5750 1750 50  0001 C CNN
F 3 "~" H 5750 1750 50  0001 C CNN
	1    5750 1750
	-1   0    0    1   
$EndComp
$Comp
L power:VCC #PWR03
U 1 1 617D361A
P 5750 1600
F 0 "#PWR03" H 5750 1450 50  0001 C CNN
F 1 "VCC" H 5700 1750 50  0000 C CNN
F 2 "" H 5750 1600 50  0001 C CNN
F 3 "" H 5750 1600 50  0001 C CNN
	1    5750 1600
	1    0    0    -1  
$EndComp
$Comp
L power:GND #PWR04
U 1 1 617D68DC
P 5900 1750
F 0 "#PWR04" H 5900 1500 50  0001 C CNN
F 1 "GND" H 6000 1600 50  0000 C CNN
F 2 "" H 5900 1750 50  0001 C CNN
F 3 "" H 5900 1750 50  0001 C CNN
	1    5900 1750
	1    0    0    -1  
$EndComp
Wire Wire Line
	5750 1750 5750 1600
Wire Wire Line
	5900 1600 5900 1750
Wire Notes Line
	5300 1350 6250 1350
Wire Notes Line
	6250 1350 6250 1950
Wire Notes Line
	6250 1950 5300 1950
Wire Notes Line
	5300 1950 5300 1350
Text Notes 5300 1450 0    50   ~ 0
Power
$Comp
L power:GND #PWR01
U 1 1 617E0E20
P 4300 3050
F 0 "#PWR01" H 4300 2800 50  0001 C CNN
F 1 "GND" H 4305 2877 50  0000 C CNN
F 2 "" H 4300 3050 50  0001 C CNN
F 3 "" H 4300 3050 50  0001 C CNN
	1    4300 3050
	1    0    0    -1  
$EndComp
$Comp
L power:VCC #PWR09
U 1 1 617E2791
P 7000 3750
F 0 "#PWR09" H 7000 3600 50  0001 C CNN
F 1 "VCC" H 7015 3923 50  0000 C CNN
F 2 "" H 7000 3750 50  0001 C CNN
F 3 "" H 7000 3750 50  0001 C CNN
	1    7000 3750
	1    0    0    -1  
$EndComp
$Comp
L power:GND #PWR010
U 1 1 617E4632
P 7000 4450
F 0 "#PWR010" H 7000 4200 50  0001 C CNN
F 1 "GND" H 7005 4277 50  0000 C CNN
F 2 "" H 7000 4450 50  0001 C CNN
F 3 "" H 7000 4450 50  0001 C CNN
	1    7000 4450
	1    0    0    -1  
$EndComp
$Comp
L power:VCC #PWR02
U 1 1 617E4638
P 4300 4550
F 0 "#PWR02" H 4300 4400 50  0001 C CNN
F 1 "VCC" H 4315 4723 50  0000 C CNN
F 2 "" H 4300 4550 50  0001 C CNN
F 3 "" H 4300 4550 50  0001 C CNN
	1    4300 4550
	1    0    0    -1  
$EndComp
$Comp
L power:GND #PWR08
U 1 1 617E4AFE
P 6800 2750
F 0 "#PWR08" H 6800 2500 50  0001 C CNN
F 1 "GND" V 6805 2622 50  0000 R CNN
F 2 "" H 6800 2750 50  0001 C CNN
F 3 "" H 6800 2750 50  0001 C CNN
	1    6800 2750
	0    -1   -1   0   
$EndComp
$Comp
L power:VCC #PWR07
U 1 1 617E4B04
P 6800 2600
F 0 "#PWR07" H 6800 2450 50  0001 C CNN
F 1 "VCC" V 6815 2728 50  0000 L CNN
F 2 "" H 6800 2600 50  0001 C CNN
F 3 "" H 6800 2600 50  0001 C CNN
	1    6800 2600
	0    1    1    0   
$EndComp
$Comp
L power:GND #PWR011
U 1 1 617E4EC0
P 8350 3250
F 0 "#PWR011" H 8350 3000 50  0001 C CNN
F 1 "GND" H 8355 3077 50  0000 C CNN
F 2 "" H 8350 3250 50  0001 C CNN
F 3 "" H 8350 3250 50  0001 C CNN
	1    8350 3250
	1    0    0    -1  
$EndComp
$Comp
L power:GND #PWR013
U 1 1 617E52B4
P 8350 5050
F 0 "#PWR013" H 8350 4800 50  0001 C CNN
F 1 "GND" H 8355 4877 50  0000 C CNN
F 2 "" H 8350 5050 50  0001 C CNN
F 3 "" H 8350 5050 50  0001 C CNN
	1    8350 5050
	1    0    0    -1  
$EndComp
Wire Wire Line
	5050 4550 4800 4550
Text Notes 4450 4650 0    50   ~ 0
Safe boot
Wire Wire Line
	5050 3050 4800 3050
Wire Wire Line
	4400 3050 4300 3050
Wire Wire Line
	4400 4550 4300 4550
Text Notes 4350 3150 0    50   ~ 0
Bootloader mode
$Comp
L Connector:Conn_01x02_Female J1
U 1 1 6181D651
P 4500 2850
F 0 "J1" H 4392 2525 50  0000 C CNN
F 1 "Conn_01x02_Female" H 4392 2616 50  0000 C CNN
F 2 "Connector_PinHeader_2.54mm:PinHeader_1x02_P2.54mm_Vertical" H 4500 2850 50  0001 C CNN
F 3 "~" H 4500 2850 50  0001 C CNN
	1    4500 2850
	-1   0    0    1   
$EndComp
Wire Wire Line
	4700 2750 5050 2750
Wire Wire Line
	5050 2850 5050 2900
Wire Wire Line
	4700 2850 5050 2850
Text Notes 4250 2750 0    50   ~ 0
Tx
Text Notes 4250 2850 0    50   ~ 0
Rx
Wire Wire Line
	6700 2600 6800 2600
Wire Wire Line
	6700 2750 6800 2750
Text Notes 6400 1400 0    50   ~ 0
Vcc
Text Notes 6550 1400 0    50   ~ 0
Gnd
Text Label 6750 4550 0    50   ~ 0
AO
Text Label 8350 3050 0    50   ~ 0
AO
Wire Wire Line
	8500 3050 8350 3050
Wire Wire Line
	8500 3250 8350 3250
Text Label 8350 3150 0    50   ~ 0
3.3v
Text Label 6800 2900 0    50   ~ 0
3.3v
Wire Wire Line
	6700 2900 6800 2900
Wire Wire Line
	8500 3150 8350 3150
Text Notes 8750 3050 0    50   ~ 0
AO
Text Notes 8750 3150 0    50   ~ 0
Vcc
Text Notes 8750 3250 0    50   ~ 0
Gnd\n
Text Notes 8250 2950 0    50   ~ 0
Sensor humedad  suelo -\nHd38
Wire Notes Line
	8100 2750 9300 2750
Wire Notes Line
	9300 2750 9300 3500
Wire Notes Line
	9300 3500 8100 3500
Wire Notes Line
	8100 3500 8100 2750
$Comp
L power:GND #PWR012
U 1 1 61894D22
P 8350 4150
F 0 "#PWR012" H 8350 3900 50  0001 C CNN
F 1 "GND" H 8350 4000 50  0000 C CNN
F 2 "" H 8350 4150 50  0001 C CNN
F 3 "" H 8350 4150 50  0001 C CNN
	1    8350 4150
	1    0    0    -1  
$EndComp
Wire Wire Line
	8600 5050 8350 5050
Wire Wire Line
	8600 4150 8350 4150
Text Label 8350 4050 0    50   ~ 0
3.3v
Text Label 8350 4950 0    50   ~ 0
3.3v
Wire Wire Line
	8600 4050 8350 4050
Wire Wire Line
	8600 4950 8350 4950
Text Label 8350 3950 0    50   ~ 0
SDA
Text Label 8350 4850 0    50   ~ 0
SDA
Text Label 4650 4100 0    50   ~ 0
SDA
Text Label 8350 4750 0    50   ~ 0
SCL
Text Label 8350 3850 0    50   ~ 0
SCL
Text Label 4650 4250 0    50   ~ 0
SCL
Wire Wire Line
	5050 4100 4650 4100
Wire Wire Line
	5050 4250 4650 4250
Text Notes 8250 3750 0    50   ~ 0
Sensor T y Hr -\nHTU21D
Wire Notes Line
	8100 3550 9300 3550
Wire Notes Line
	9300 3550 9300 4350
Wire Notes Line
	9300 4350 8100 4350
Wire Notes Line
	8100 4350 8100 3550
Text Notes 8900 3850 0    50   ~ 0
SCL
Text Notes 8850 4750 0    50   ~ 0
SCL
Text Notes 8900 3950 0    50   ~ 0
SDA
Text Notes 8850 4850 0    50   ~ 0
SDA
Text Notes 8900 4050 0    50   ~ 0
Vcc
Text Notes 8900 4150 0    50   ~ 0
Gnd\n
Text Notes 8850 4950 0    50   ~ 0
Vcc
Text Notes 8850 5050 0    50   ~ 0
Gnd\n
Text Notes 8250 4650 0    50   ~ 0
Sensor T y Pr -\nBME280
Wire Notes Line
	8100 4400 9300 4400
Wire Notes Line
	9300 4400 9300 5250
Wire Notes Line
	9300 5250 8100 5250
Wire Notes Line
	8100 5250 8100 4400
Text Notes 6850 1300 0    50   ~ 0
Battery
Wire Notes Line
	6350 1200 7150 1200
Wire Notes Line
	7150 1200 7150 1950
Wire Notes Line
	7150 1950 6350 1950
Wire Notes Line
	6350 1950 6350 1200
Wire Wire Line
	7000 4050 7000 4100
Wire Wire Line
	6700 4550 6750 4550
Wire Wire Line
	6700 4100 7000 4100
Connection ~ 7000 4100
Wire Wire Line
	7000 4100 7000 4150
NoConn ~ 6700 4400
NoConn ~ 6700 4250
NoConn ~ 6700 3950
NoConn ~ 6700 3800
NoConn ~ 6700 3650
NoConn ~ 6700 3500
NoConn ~ 6700 3350
NoConn ~ 6700 3200
NoConn ~ 6700 3050
NoConn ~ 5050 2600
NoConn ~ 5050 3200
NoConn ~ 5050 3350
NoConn ~ 5050 3500
NoConn ~ 5050 3650
NoConn ~ 5050 3800
NoConn ~ 5050 3950
NoConn ~ 5050 4400
Wire Wire Line
	8600 3850 8350 3850
Wire Wire Line
	8600 3950 8350 3950
Wire Wire Line
	8600 4750 8350 4750
Wire Wire Line
	8600 4850 8350 4850
$EndSCHEMATC
